…
> for(l in 1:size_post_samples){
+   C1 <- matern32(d = obsDistMat, sigma = post_sigma1[l],  lscale = post_ell1[l])
+   post_z1[l,] <- drop(crossprod(chol(C1),post_noise1[l,]))
+ }
> str(post_z1)
 num [1:4000, 1:500] 0.408 0.168 0.906 -1.365 -0.356 ...
> 
> z1_summary <- tibble(z1 = obsZ1,
+                      post.mean = apply(post_z1, 2, mean),
+                      post.sd = apply(post_z1, 2, sd),
+                      post.q2.5 = apply(post_z1, 2, quantile2.5),
+                      post.q50 = apply(post_z1, 2, quantile50),
+                      post.q97.5 = apply(post_z1, 2, quantile97.5))
> z1_summary
# A tibble: 500 × 6
         z1 post.mean post.sd post.q2.5 post.q50 post.q97.5
      <dbl>     <dbl>   <dbl>     <dbl>    <dbl>      <dbl>
 1  0.366      -0.290   0.686    -1.81    -0.233      0.876
 2  1.15        0.638   0.431    -0.176    0.621      1.56 
 3  0.00881     0.487   0.464    -0.428    0.490      1.42 
 4 -0.146      -0.478   0.607    -1.85    -0.434      0.573
 5  1.05        0.448   0.495    -0.561    0.451      1.41 
 6 -0.524      -0.498   0.672    -2.04    -0.423      0.620
 7 -1.63       -0.790   0.612    -2.06    -0.776      0.359
 8 -1.31       -0.637   0.638    -2.08    -0.583      0.499
 9  1.67        1.19    0.447     0.426    1.17       2.14 
10  0.0385      0.450   0.560    -0.767    0.487      1.45 
# ℹ 490 more rows
…
