…
> for(l in 1:size_post_samples){
+   C1 <- matern32(d = obsDistMat, sigma = post_sigma1[l],  lscale = post_ell1[l])
+   post_z1[l,] <- drop(crossprod(chol(C1),post_noise1[l,]))
+ }
> str(post_z1)
 num [1:4000, 1:500] 0.456 0.903 0.397 0.229 2.007 ...
> 
> z1_summary <- tibble(z1 = obsZ1,
+                      post.mean = apply(post_z1, 2, mean),
+                      post.sd = apply(post_z1, 2, sd),
+                      post.q2.5 = apply(post_z1, 2, quantile2.5),
+                      post.q50 = apply(post_z1, 2, quantile50),
+                      post.q97.5 = apply(post_z1, 2, quantile97.5))
> z1_summary
# A tibble: 500 × 6
        z1 post.mean post.sd post.q2.5 post.q50 post.q97.5
     <dbl>     <dbl>   <dbl>     <dbl>    <dbl>      <dbl>
 1  1.59       0.939   0.554   -0.0366    0.892      2.21 
 2  1.20       1.12    0.522    0.270     1.07       2.32 
 3 -0.0983     0.407   0.591   -0.732     0.387      1.60 
 4  1.20       0.756   0.545   -0.173     0.705      2.01 
 5  2.41       2.03    0.520    1.24      1.96       3.28 
 6  0.896      0.366   0.625   -0.923     0.371      1.60 
 7 -1.09      -0.953   0.704   -2.47     -0.903      0.365
 8 -1.09      -0.253   0.639   -1.55     -0.242      1.03 
 9  0.837     -0.457   0.870   -2.46     -0.343      0.942
10 -0.407     -0.794   0.859   -2.75     -0.699      0.674
# ℹ 490 more rows
…
Starts for posterior sample : 3200
Starts for posterior sample : 3600
Starts for posterior sample : 4000
> 
> ypred_draws <- do.call(rbind,post_ypred); str(ypred_draws)
 num [1:4000, 1:9500] 3.37 3.77 2.84 3.25 3.07 ...
> pred_summary <- tibble(
+   post.mean = apply(ypred_draws, 2, mean),
+   post.sd = apply(ypred_draws, 2, sd),
+   post.q2.5 = apply(ypred_draws, 2, quantile2.5),
+   post.q50 = apply(ypred_draws, 2, quantile50),
+   post.q97.5 = apply(ypred_draws, 2, quantile97.5),
+   y = prdY)
> pred_summary
# A tibble: 9,500 × 6
   post.mean post.sd post.q2.5 post.q50 post.q97.5     y
       <dbl>   <dbl>     <dbl>    <dbl>      <dbl> <dbl>
 1     3.02    0.717     1.55     3.02        4.38  4.04
 2     2.40    0.693     0.983    2.40        3.75  2.07
 3     3.42    0.660     2.11     3.43        4.70  2.38
 4     2.42    0.633     1.19     2.44        3.69  2.25
 5     0.465   0.616    -0.774    0.472       1.63  1.78
 6     2.42    0.598     1.26     2.41        3.60  2.54
 7     3.63    0.596     2.45     3.63        4.77  4.36
 8     2.66    0.602     1.48     2.67        3.82  2.96
 9     2.60    0.624     1.37     2.62        3.82  4.10
10     0.826   0.637    -0.432    0.837       2.06  1.80
# ℹ 9,490 more rows
…
