…
+   apply(sqrt(1/L) * sin(sqrt(lambda) %*% diag(x + L)), 1, prod)
+ }
> obsH <- t(apply(obsCoords, 1, function(x) eigenfunction_compute(x, L = L, lambda = lambda)))
> str(obsH)
 num [1:500, 1:1024] 0.203 0.225 0.219 0.105 0.216 ...
> post_z1 <- t(sapply(1:size_post_samples, function(l) obsH %*% post_omega1[l,])); str(post_z1)
 num [1:4000, 1:500] -0.4253 -0.4127 -0.3071 -0.0942 0.9765 ...
> 
> z1_summary <- tibble(post.mean = apply(post_z1, 2, mean),
+                      post.sd = apply(post_z1, 2, sd),
+                      post.q2.5 = apply(post_z1, 2, quantile2.5),
+                      post.q50 = apply(post_z1, 2, quantile50),
+                      post.q97.5 = apply(post_z1, 2, quantile97.5))
> z1_summary
# A tibble: 500 × 5
   post.mean post.sd post.q2.5 post.q50 post.q97.5
       <dbl>   <dbl>     <dbl>    <dbl>      <dbl>
 1   -0.274    0.688     -1.79  -0.199       0.886
 2    0.279    0.636     -1.26   0.366       1.30 
 3   -0.205    0.611     -1.52  -0.165       0.843
 4   -0.0554   0.747     -1.92   0.0865      1.06 
 5    0.393    0.618     -1.14   0.477       1.42 
 6    0.389    0.635     -1.16   0.474       1.46 
 7    0.278    0.665     -1.31   0.371       1.35 
 8   -0.317    0.590     -1.64  -0.279       0.753
 9   -0.0142   0.806     -2.06   0.139       1.15 
10   -0.338    0.581     -1.62  -0.308       0.741
# ℹ 490 more rows
…
> psize <- nrow(prdCoords); psize
[1] 9500
> predH <- t(apply(prdCoords, 1, function(x) eigenfunction_compute(x, L = L, lambda = lambda))); str(predH)
 num [1:9500, 1:1024] 0.0614 0.0671 0.0727 0.0783 0.0838 ...
> post_z1pred <- t(sapply(1:size_post_samples, function(l) predH %*% post_omega1[l,])); str(post_z1pred)
 num [1:4000, 1:9500] 0.0757 0.9261 1.6882 1.384 1.5143 ...
> 
> z1pred_summary <- tibble(
+   post.mean = apply(post_z1pred, 2, mean),
+   post.sd = apply(post_z1pred, 2, sd),
+   post.q2.5 = apply(post_z1pred, 2, quantile2.5),
+   post.q50 = apply(post_z1pred, 2, quantile50),
+   post.q97.5 = apply(post_z1pred, 2, quantile97.5))
> z1pred_summary
# A tibble: 9,500 × 5
   post.mean post.sd post.q2.5 post.q50 post.q97.5
       <dbl>   <dbl>     <dbl>    <dbl>      <dbl>
 1     1.27    0.554    0.203     1.26        2.39
 2     1.26    0.527    0.262     1.26        2.29
 3     1.23    0.505    0.274     1.22        2.22
 4     1.17    0.484    0.254     1.16        2.14
 5     1.10    0.460    0.208     1.09        2.03
 6     1.03    0.436    0.176     1.02        1.94
 7     0.974   0.417    0.167     0.963       1.83
 8     0.919   0.427    0.0847    0.910       1.79
 9     0.922   0.462    0.0285    0.918       1.86
10     0.940   0.507   -0.0330    0.935       1.97
# ℹ 9,490 more rows
…
Starts for prediction location : 3200
Starts for prediction location : 3600
Starts for prediction location : 4000
> 
> ypred_draws <- do.call(rbind,post_ypred); str(ypred_draws)
 num [1:4000, 1:9500] 6.96 11.79 14.78 14.92 8.93 ...
> pred_summary <- tibble(
+   post.mean = apply(ypred_draws, 2, mean),
+   post.sd = apply(ypred_draws, 2, sd),
+   post.q2.5 = apply(ypred_draws, 2, quantile2.5),
+   post.q50 = apply(ypred_draws, 2, quantile50),
+   post.q97.5 = apply(ypred_draws, 2, quantile97.5),
+   y = prdY)
> pred_summary
# A tibble: 9,500 × 6
   post.mean post.sd post.q2.5 post.q50 post.q97.5     y
       <dbl>   <dbl>     <dbl>    <dbl>      <dbl> <dbl>
 1     11.5    2.85       7.43    11.0        18.4 10.0 
 2     10.8    2.56       6.98    10.4        17.1  7.98
 3     11.6    2.21       8.15    11.2        16.9  8.80
 4     10.2    1.83       7.23     9.96       14.3  9.52
 5      7.88   1.47       5.36     7.77       11.2  9.22
 6      9.43   1.14       7.41     9.36       11.8  9.23
 7     10.4    0.865      8.74    10.4        12.1 11.5 
 8      9.31   0.860      7.66     9.28       11.0  8.23
 9      9.32   1.16       7.18     9.28       11.7  8.35
10      7.82   1.55       5.19     7.68       11.4  5.74
# ℹ 9,490 more rows
…
